Project3/Source/tb_State.vcd
$date
	Mon Nov 09 10:03:50 2020
$end
$version
	Icarus Verilog
$end
$timescale
	100ps
$end
$scope module tb_State $end
$var wire 1 ! reset_counter $end
$var wire 3 " hazard [2:0] $end
$var wire 3 # counter [2:0] $end
$var wire 4 $ before [3:0] $end
$var wire 4 % NextState [3:0] $end
$var wire 10 & LEDR [9:0] $end
$var wire 4 ' CurrentState [3:0] $end
$var reg 2 ( KEY [1:0] $end
$var reg 10 ) SW [9:0] $end
$var reg 1 * clock $end
$var reg 1 + reset_n $end
$scope module C1 $end
$var wire 1 * clock $end
$var wire 1 + reset_n $end
$var wire 1 ! reset_counter $end
$var wire 1 , reset $end
$var wire 4 - CurrentState [3:0] $end
$var reg 4 . before [3:0] $end
$var reg 3 / counter [2:0] $end
$var reg 3 0 hazard [2:0] $end
$upscope $end
$scope module CS $end
$var wire 1 * clock $end
$var wire 1 + reset_n $end
$var wire 4 1 NextState [3:0] $end
$var reg 4 2 CurrentState [3:0] $end
$upscope $end
$scope module NS $end
$var wire 4 3 CurrentState [3:0] $end
$var wire 2 4 KEY [1:0] $end
$var wire 10 5 SW [9:0] $end
$var reg 4 6 NextState [3:0] $end
$var reg 1 ! reset_counter $end
$upscope $end
$scope module O $end
$var wire 4 7 CurrentState [3:0] $end
$var wire 3 8 counter [2:0] $end
$var wire 3 9 hazard [2:0] $end
$var reg 10 : LEDR [9:0] $end
$upscope $end
$upscope $end
$enddefinitions $end
#0
$dumpvars
b0 :
b111 9
b0 8
b0 7
b0 6
bx 5
b1x 4
b0 3
b0 2
b0 1
b111 0
b0 /
bx .
b0 -
x,
0+
0*
bx )
b1x (
b0 '
b0 &
b0 %
bx $
b0 #
b111 "
1!
$end
#100
1,
b0 $
b0 .
1*
#200
0*
1+
#300
b0 "
b0 0
b0 9
b1 #
b1 /
b1 8
1*
#400
b1 %
b1 1
b1 6
0*
bx1 )
bx1 5
#500
0,
b1110000111 &
b1110000111 :
b111 "
b111 0
b111 9
b10 #
b10 /
b10 8
b1 '
b1 -
b1 2
b1 3
b1 7
1*
#600
0*
#700
1,
b1 $
b1 .
b0 #
b0 /
b0 8
1*
#800
0*
#900
b0 &
b0 :
b0 "
b0 0
b0 9
b1 #
b1 /
b1 8
1*
#1000
0*
#1100
b1110000111 &
b1110000111 :
b111 "
b111 0
b111 9
b10 #
b10 /
b10 8
1*
#1200
0*
#1300
b0 &
b0 :
b0 "
b0 0
b0 9
b11 #
b11 /
b11 8
1*
#1400
0*
#1500
b1110000111 &
b1110000111 :
b111 "
b111 0
b111 9
b100 #
b100 /
b100 8
1*
#1600
0*
#1700
b0 &
b0 :
b0 "
b0 0
b0 9
b101 #
b101 /
b101 8
1*
#1800
0*
#1900
b1110000111 &
b1110000111 :
b111 "
b111 0
b111 9
b110 #
b110 /
b110 8
1*
#2000
0*
#2100
b0 &
b0 :
b0 #
b0 /
b0 8
b0 "
b0 0
b0 9
1*
#2200
0*
#2300
b1110000111 &
b1110000111 :
b111 "
b111 0
b111 9
b1 #
b1 /
b1 8
1*
#2400
0*
#2500
b0 &
b0 :
b0 "
b0 0
b0 9
b10 #
b10 /
b10 8
1*
#2600
0!
b101 %
b101 1
b101 6
0*
bx10 )
bx10 5
#2700
0,
1!
b110000000 &
b110000000 :
b101 '
b101 -
b101 2
b101 3
b101 7
b111 "
b111 0
b111 9
b11 #
b11 /
b11 8
1*
#2800
0*
#2900
1,
b0 &
b0 :
b101 $
b101 .
b0 #
b0 /
b0 8
1*
#3000
0*
#3100
b10000000 &
b10000000 :
b0 "
b0 0
b0 9
b1 #
b1 /
b1 8
1*
#3200
0*
#3300
b111 "
b111 0
b111 9
b10 #
b10 /
b10 8
1*
#3400
0*
#3500
b110000000 &
b110000000 :
b0 "
b0 0
b0 9
b11 #
b11 /
b11 8
1*
#3600
0*
#3700
b111 "
b111 0
b111 9
b100 #
b100 /
b100 8
1*
#3800
0*
#3900
b1110000000 &
b1110000000 :
b0 "
b0 0
b0 9
b101 #
b101 /
b101 8
1*
#4000
0*
#4100
b0 &
b0 :
b111 "
b111 0
b111 9
b110 #
b110 /
b110 8
1*
#4200
0*
#4300
b0 #
b0 /
b0 8
b0 "
b0 0
b0 9
1*
#4400
0*
#4500
b10000000 &
b10000000 :
b111 "
b111 0
b111 9
b1 #
b1 /
b1 8
1*
#4600
0*
#4700
b0 "
b0 0
b0 9
b10 #
b10 /
b10 8
1*
#4800
0!
b111 %
b111 1
b111 6
0*
bx110 )
bx110 5
#4900
0,
1!
b110000111 &
b110000111 :
b111 "
b111 0
b111 9
b11 #
b11 /
b11 8
b111 '
b111 -
b111 2
b111 3
b111 7
1*
#5000
0*
#5100
1,
b111 &
b111 :
b111 $
b111 .
b0 #
b0 /
b0 8
1*
#5200
0*
#5300
b10000111 &
b10000111 :
b0 "
b0 0
b0 9
b1 #
b1 /
b1 8
1*
#5400
0*
#5500
b111 "
b111 0
b111 9
b10 #
b10 /
b10 8
1*
#5600
0*
#5700
b110000111 &
b110000111 :
b0 "
b0 0
b0 9
b11 #
b11 /
b11 8
1*
#5800
0*
#5900
b111 "
b111 0
b111 9
b100 #
b100 /
b100 8
1*
#6000
0*
#6100
b1110000111 &
b1110000111 :
b0 "
b0 0
b0 9
b101 #
b101 /
b101 8
1*
#6200
0*
#6300
b111 &
b111 :
b111 "
b111 0
b111 9
b110 #
b110 /
b110 8
1*
#6400
0*
#6500
b0 #
b0 /
b0 8
b0 "
b0 0
b0 9
1*
#6600
0*
#6700
b10000111 &
b10000111 :
b111 "
b111 0
b111 9
b1 #
b1 /
b1 8
1*
#6800
0*
#6900
b0 "
b0 0
b0 9
b10 #
b10 /
b10 8
1*
#7000
0!
b110 %
b110 1
b110 6
0*
b0x (
b0x 4
#7100
0,
1!
b1110000110 &
b1110000110 :
b110 '
b110 -
b110 2
b110 3
b110 7
b111 "
b111 0
b111 9
b11 #
b11 /
b11 8
1*
#7200
0*
#7300
1,
b1110000000 &
b1110000000 :
b110 $
b110 .
b0 #
b0 /
b0 8
1*
#7400
0*
#7500
b1110000100 &
b1110000100 :
b0 "
b0 0
b0 9
b1 #
b1 /
b1 8
1*
#7600
0*
#7700
b111 "
b111 0
b111 9
b10 #
b10 /
b10 8
1*
#7800
0*
#7900
b1110000110 &
b1110000110 :
b0 "
b0 0
b0 9
b11 #
b11 /
b11 8
1*
#8000
0*
#8100
b111 "
b111 0
b111 9
b100 #
b100 /
b100 8
1*
#8200
0*
#8300
b1110000111 &
b1110000111 :
b0 "
b0 0
b0 9
b101 #
b101 /
b101 8
1*
#8400
0*
#8500
b1110000000 &
b1110000000 :
b111 "
b111 0
b111 9
b110 #
b110 /
b110 8
1*
#8600
0*
#8700
b0 #
b0 /
b0 8
b0 "
b0 0
b0 9
1*
#8800
0*
#8900
b1110000100 &
b1110000100 :
b111 "
b111 0
b111 9
b1 #
b1 /
b1 8
1*
#9000
0*
#9100
b0 "
b0 0
b0 9
b10 #
b10 /
b10 8
1*
#9200
0!
b100 %
b100 1
b100 6
0*
bx010 )
bx010 5
#9300
0,
1!
b110 &
b110 :
b111 "
b111 0
b111 9
b11 #
b11 /
b11 8
b100 '
b100 -
b100 2
b100 3
b100 7
1*
#9400
0*
#9500
1,
b0 &
b0 :
b100 $
b100 .
b0 #
b0 /
b0 8
1*
#9600
0*
#9700
b100 &
b100 :
b0 "
b0 0
b0 9
b1 #
b1 /
b1 8
1*
#9800
0*
#9900
b111 "
b111 0
b111 9
b10 #
b10 /
b10 8
1*
#10000
0*
#10100
b110 &
b110 :
b0 "
b0 0
b0 9
b11 #
b11 /
b11 8
1*
#10200
0*
#10300
b111 "
b111 0
b111 9
b100 #
b100 /
b100 8
1*
#10400
0*
#10500
b111 &
b111 :
b0 "
b0 0
b0 9
b101 #
b101 /
b101 8
1*
#10600
0*
#10700
b0 &
b0 :
b111 "
b111 0
b111 9
b110 #
b110 /
b110 8
1*
#10800
0*
#10900
b0 #
b0 /
b0 8
b0 "
b0 0
b0 9
1*
#11000
0*
#11100
b100 &
b100 :
b111 "
b111 0
b111 9
b1 #
b1 /
b1 8
1*
#11200
0*
#11300
b0 "
b0 0
b0 9
b10 #
b10 /
b10 8
1*
#11400
b11 %
b11 1
b11 6
0*
bx100 )
bx100 5
#11500
0,
b1110000111 &
b1110000111 :
b11 '
b11 -
b11 2
b11 3
b11 7
b111 "
b111 0
b111 9
b11 #
b11 /
b11 8
1*
#11600
0*
#11700
1,
b11 $
b11 .
b0 #
b0 /
b0 8
1*
#11800
0*
#11900
b0 "
b0 0
b0 9
b1 #
b1 /
b1 8
1*
#12000
0*
#12100
b111 "
b111 0
b111 9
b10 #
b10 /
b10 8
1*
#12200
0*
#12300
b0 "
b0 0
b0 9
b11 #
b11 /
b11 8
1*
#12400
0*
#12500
b111 "
b111 0
b111 9
b100 #
b100 /
b100 8
1*
#12600
0*
#12700
b0 "
b0 0
b0 9
b101 #
b101 /
b101 8
1*
#12800
0,
b0 &
b0 :
b0 #
b0 /
b0 8
b111 "
b111 0
b111 9
b0 '
b0 -
b0 2
b0 3
b0 7
0*
0+
#12900
1,
b0 $
b0 .
1*
